:100000000C944E040C9495040C9495040C94950453
:100010000C9495040C9495040C9495040C949504FC
:100020000C9495040C9495040C94DD1F0C94B02052
:100030000C94B5160C9495040C9495040C949504AA
:100040000C9495040C9495040C9495040C949504CC
:100050000C9495040C941D170C9495040C94950421
:100060000C9495040C9495040C9495040C949504AC
:100070000C9495040C9495040C9495040C9495049C
:100080000C9495040C9495040C9495040C9495048C
:100090000C9495040C9495040C9495040C9495047C
:1000A0000C9495040C9495040C94950401E201338E
:1000B000023302E20001E3011D02E30001E101E27B
:1000C000011F021F02E202E10001E2011802180210
:1000D000E2010402040001E20118021802E2011226
:1000E00002120001E20118021802E20118021800CF
:1000F00029001B0019000F0006001A000E000B005B
:100100000A00090014002A002B0018000C0004004B
:1001100008001200160011001500170007001C004F
:10012000E10000300130023013001D000500100016
:10013000360037000D0028000007000F0451E000D2
:10014000E200E3002C0002510351010050004F0077
:100150000100010001000100010001000100010097
:100160000100010001000100010001000100010087
:100170000100010001000100010001000100010077
:10018000010038002D002E000100010001000100D7
:1001900001004A00010001000100010010500100AF
:1001A0000100010001000100010001000100010047
:1001B00001004B002A0052004C004E002D0024008C
:1001C000250026002E02010001004A0050005100C7
:1001D0004F004D000330210022002300360037007D
:1001E00001000100010001002800043033021E005C
:1001F0001F00200027000100010001000100010094
:1002000001000100010001000100010001000100E6
:10021000010005302D022F00300023021E0236029D
:1002200037022E00240201000100310038002F02A5
:10023000300225023802260227022D0033021F0257
:100240000100200221023102350235002E02220275
:1002500034023400330001000100010001000100FC
:100260000100010001000100010001000100010086
:100270001150010001000100010001000100010016
:100280000100010001000070AE00AC00AB00AA004C
:10029000A9000100010001000100010001000100AE
:1002A000390001000100A800010001000100010067
:1002B0000100010001000100010001000100010036
:1002C0000100010001000100010001000100010026
:1002D0000100010001000100010001000100010016
:1002E0000100010001000100010001000100010006
:1002F00001000100010001000100010001000100F6
:1003000001000100010001000100010001000100E5
:1003100001000100010001000100010001000100D5
:1003200001000100010001000100010001000100C5
:1003300001000100010001000100010001000100B5
:1003400001000100010001000100010001000100A5
:100350000100010001000100010001000100010095
:100360000100010001000100010001000100010085
:100370000100010001000100010001000100010075
:100380000100010001000100010001000100010065
:100390000100010001000100010001000100010055
:1003A0000100010001000100010001000100010045
:1003B0000100010001000100010001000100010035
:1003C0000100010001000100010001000100010025
:1003D0000100010001000100010001000100010015
:1003E0000100010001000100010001000100010005
:1003F00001000100010001000100010001000100F5
:1004000001000100010001000100010001000100E4
:1004100001000100010001000100010001000100D4
:1004200001000100010001000100010001000100C4
:1004300001000100010001000100010001000100B4
:1004400001000100010001000100010001000100A4
:100450000100010001000100010001000100010094
:100460000100010001000100010001000100010084
:100470000100010001000100010001000100010074
:100480000100010001000100010001000100010064
:100490000100010001000100010001000100010054
:1004A0000100010001000100010001000100010044
:1004B0000100010001000100010001000100010034
:1004C0000100010001000100010001000100010024
:1004D0000100010001000100010001000100010014
:1004E0000100010001000100010001000100010004
:1004F00001000100010001000100010001000100F4
:1005000001000100010001000100010001000100E3
:1005100001000100010001000100010001000100D3
:1005200001000100010001000100010001000100C3
:1005300001000100010001000100010001000100B3
:1005400001000100010001000100010001000100A3
:100550000100010001000100010001000100010093
:100560000100010001000100010001000100010083
:100570000100010001000100010001000100010073
:100580000100010001000100010001000100010063
:100590000100010001000100010001000100010053
:1005A0000100010001000100010001000100010043
:1005B0000100010001000100010001000100010033
:1005C0000100010001000100010001000100010023
:1005D0000100010001000100010001000100010013
:1005E0000100010001000100010001000100010003
:1005F00001000100010001000100010001000100F3
:1006000001000100010001000100010001000100E2
:1006100001000100010001000100010001000100D2
:1006200001000100010001000100010001000100C2
:1006300001000100010001000100010001000100B2
:1006400001000100010001000100010001000100A2
:100650000100010001000100010001000100010092
:100660000100010001000100010001000100010082
:100670000100010001000100010001000100010072
:100680000100010001000100010001000100010062
:100690000100010001000100010001000100010052
:1006A0000100010001000100010001000100010042
:1006B0000100010001000100010001000100010032
:1006C0000100010001000100010001000100010022
:1006D0000100010001000100010001000100010012
:1006E0000100010001000100010001000100010002
:1006F00012036B006500790062006F0061007200F8
:1007000064000000160371006D006B00620075004C
:1007100069006C00640065007200000004030904B5
:1007200009026D00040100A0FA09040000010301A0
:100730000100092111010001224000070581030881
:10074000000A09040100010301020009211101004E
:1007500001224D000705820308000A090402000176
:100760000300000009211101000122360007058362
:100770000308000A09040300010300000009211115
:100780000100012239000705840320000112011035
:100790000100000008EDFE6060010001020001059B
:1007A000010906A101050719E029E71500250195B2
:1007B0000875018102050819012905950575019142
:1007C000029501750391010507190029F715002508
:1007D0000195F875018102C005010980A10185021A
:1007E0001601002603001A81002A83007510950166
:1007F0008100C0050C0901A1018503160100269C9A
:10080000021A01002A9C02751095018100C00501A1
:100810000902A1010901A100050919012905150015
:100820002501950575018102950175038101050179
:10083000093009311581257F95027508810609382F
:100840001581257F950175088106050C0A3802156A
:1008500081257F950175088106C0C005010906A1A3
:1008600001050719E029E7150025019508750181A3
:10087000029501750881010508190129059505757D
:100880000191029501750391010507190029FF15D2
:100890000026FF00950675088100C00011241FBEC8
:1008A000CFEFDAE0DEBFCDBF04B603FE27C08091F4
:1008B000310290913202A0913302B091340287301C
:1008C000904BA740B04BD1F41092310210923202FB
:1008D000109233021092340214BE84B7877F84BF13
:1008E0000FB6F894A89580916000886180936000AD
:1008F000109260000FBEE0E0F8E3099511E0A0E07F
:10090000B1E0E8EEF7E402C005900D92A833B1071C
:10091000D9F722E0A8E3B1E001C01D92A133B207EC
:10092000E1F70E942C1D0C94F2230C940000FC01B2
:100930006230F9F038F4662381F06130A1F090E084
:1009400080E00895643009F1D0F06530C1F782810C
:100950008823A9F38CEA90E008958281882379F3B3
:1009600083EE90E008958281882349F386ED90E03C
:1009700008958281882319F389EC90E0089582819B
:100980008823E9F28CEB90E0089582818823B9F204
:1009900085EB90E008950895089581E00895089505
:1009A00081E008950C94CD040E941B0F2FEF84E387
:1009B0009CE0215080409040E1F700C000000C9482
:1009C0004217FF920F931F93CF93DF938C01FC018B
:1009D000C081D18180916C0181113FC082818823C7
:1009E000B9F1CE010E948214F82E682FCE010E9428
:1009F0002814BE018F2D0E946606EC01B8010E94EA
:100A0000D204882309F44AC0B801CE010E94960896
:100A1000882309F443C0C531F0E7DF0718F5C23079
:100A200080E7D80708F04BC0C115E0E7DE0789F181
:100A3000C130D047D1F181E080933A0180933B01EE
:100A4000C801DF91CF911F910F91FF900C94D004BA
:100A5000CE010E945714F82ECCCFCE010E948214F2
:100A6000BE01C9CFCC3380E7D80709F4ACC0CD3381
:100A7000D04709F7F8018281882309F4CBC010928E
:100A80003B010E94E716909339018093380180E280
:100A9000A7C0F801828181110E94D40480E0DF9117
:100AA000CF911F910F91FF900895F80182818823C3
:100AB000A9F38091F00181608093F001EFCFF801FC
:100AC0008281882309F4BCCF0E943816811102C0AC
:100AD0000E9419160E94551690E09093220280936E
:100AE0002102FE01E350F047809121028160E23152
:100AF000F105C8F4E258FA4F0C94A22390059C0526
:100B0000A005A405A805AC05B005B405B805BC054D
:100B1000C005C405C805CC05D005D405D805DC053D
:100B200080912102826080932102809121020E94A3
:100B300059160E941B0FB2CF809121028460F3CF1F
:100B4000809121028860EFCF809121028061EBCFFC
:100B5000809121028062E7CF809121028064E3CFFF
:100B6000809121028068DFCF809121028460EACFEA
:100B7000809121028E7FD7CF809121028D7FD3CFAC
:100B8000809121028B7FCFCF80912102877FCBCFB5
:100B9000809121028F7EC7CF809121028F7DC3CFAC
:100BA000809121028F7BBFCF809121028F77BBCFB5
:100BB000809121028B7FEACF90912102892F97FBB0
:100BC00087F98058B0CFF8018281882361F01092B4
:100BD0003A010E94E716909339018093380182E030
:100BE0000E94850C5BCF80913A0181110FC08091EA
:100BF0003801909139010E94F316883C910530F438
:100C000086E20E945A0B86E20E94360C82E00E9425
:100C10008C0C44CF80913B0181110FC08091380131
:100C2000909139010E94F316883C910530F487E2D7
:100C30000E945A0B87E20E94360C80E2E8CF0C94A7
:100C4000E708279A2F988FEF9FEF90938700809364
:100C500086008AE08093800089E1809381000C9473
:100C6000E11A0E9421060C94E508282F2F98809104
:100C70008000211108C0877F8093800010928D0032
:100C800010928C000895886080938000233039F49E
:100C90008FEF9FEF90938D0080938C00089583E0F9
:100CA00090E0821B9109880F991F2FEF3FEF02C040
:100CB000369527958A95E2F730938D0020938C0026
:100CC00008950C94CF040C9461060895972F70E05A
:100CD0002CE0929F600D711D1124FB0190E3899F10
:100CE000E00DF11D1124EE0FFF1FE051FF4F859124
:100CF00094910895FC01EE0FFF1FE051F94F85918B
:100D0000949108950E9466060E941508811520E5B9
:100D1000920708F040C0811530E4930708F0FAC04C
:100D2000883E910518F5803E910508F07DC1883A0E
:100D3000910580F4853A910508F087C081309105CE
:100D400009F472C120F08430910508F06DC190E083
:100D500080E008958D3B910508F482C0803C9105A8
:100D6000B0F3805C91090E947A060895811540E2F3
:100D7000940750F4811521E0920708F055C1803F97
:100D8000910528F390650895811530E3930708F0E5
:100D9000BEC09F70E8CF811545E5940760F58115C9
:100DA00024E5920708F0E5C0811532E5930750F479
:100DB000811541E5940708F4B0C0982F8827816F0A
:100DC000906A0895282F26952695AC0143705527E3
:100DD0008115934508F0BEC081E090E002C0880F05
:100DE000991F4A95E2F740E2249F90011124822B3B
:100DF000932B9C680895803340E7940798F48032E1
:100E000020E7920708F0BFC0811536E5930708F484
:100E1000B5C09C0130569F702115304108F097CF26
:100E200090620895813320E7920709F4B3C008F473
:100E3000AEC0823340E7940709F4AFC083339047D4
:100E400009F085CF80E093ED0895853A910509F486
:100E5000A7C0863A910509F0A6C082E890E40895FB
:100E6000883A910509F4A2C0893A910509F4A1C014
:100E70008A3A910509F4A0C08B3A910509F49FC004
:100E80008C3A910509F49EC08B3B910509F49DC0F5
:100E90008C3B910509F49CC08D3A910509F49BC0E7
:100EA000803B910509F49AC08E3A910509F499C0E6
:100EB0008F3A910509F498C0813B910509F497C0D8
:100EC000823B910509F496C0833B910509F495C0D6
:100ED000843B910509F494C0853B910509F493C0C6
:100EE000863B910509F492C0873B910509F491C0B6
:100EF000883B910509F490C0893B910509F48FC0A6
:100F00008A3B910509F48EC080E094E40895992706
:100F1000906C08959F70906A08959C0154E03695F6
:100F200027955A95E1F7922F9370482F437021E04F
:100F300030E002C0220F331F4A95E2F73C68392B9C
:100F400086958695837040E2849FC0011124822B90
:100F5000932B089581E090E002C0880F991F4A9575
:100F6000E2F740E2249F90011124822B932B9A6890
:100F70000895982F8827846F906A0895982F88275E
:100F800088279F714DCF80529047946D089580E0DF
:100F900091ED089580E090ED089580E092ED089540
:100FA00081E890E4089583E890E4089582EE94E463
:100FB000089589EE94E408958AEE94E4089585EB0B
:100FC00094E4089586EB94E4089583EB94E4089503
:100FD00084EB94E4089587EB94E408958CEC94E416
:100FE00008958DEC94E4089583E895E408958AE8E3
:100FF00095E4089582E995E4089584E995E40895D7
:1010000081E296E4089583E296E4089584E296E40A
:10101000089585E296E4089586E296E4089587E2CD
:1010200096E408958AE296E408958238910549F19C
:10103000B0F48133910509F45CC048F4893291051C
:1010400009F452C08A32910509F458C008958533D5
:10105000910509F444C08933910599F00895833EC0
:10106000910531F138F4803E910591F0823E910571
:10107000B1F00895863E910511F1873E910541F149
:101080000895209121022370C9F080EE90E0089528
:101090002091210220FF12C089E390E00895209161
:1010A000210222FF0BC024FF2EC090E080E00895B3
:1010B0002091210222FD2AC024FDF7CF089520911E
:1010C000210223FFFBCF24FDF0CF87EE90E00895AF
:1010D0002091210223FFF0CF86EE90E00895209129
:1010E000210225FD16C008952091210225FD14C07E
:1010F00008952091210226FD12C008952091210219
:1011000026FD10C0089583EE90E0089582EE90E0F1
:10111000089589E290E0089585E390E008958AE2D9
:1011200090E0089581E390E0C9CF08950F931F9355
:10113000CF938C01FB018281811106C0C1E08C2F0D
:10114000CF911F910F910895C0914901C11125C000
:101150000531104799F70E94950881E08093490175
:101160000E94E716909348018093470110923C013A
:1011700010923E0110923D011092400110923F01E9
:1011800010924201109241011092440110924301C9
:101190001092460110924501D2CF80914701909163
:1011A00048010E94F316883C910540F680913C016D
:1011B000E82FF0E0EE0FFF1FE35CFE4F118300838A
:1011C0008F5F80933C01C0E0BACF0C94CB040C94A9
:1011D000CC04CF93DF9385B7806885BF85B78068DF
:1011E00085BFAFE1B1E043E251E0C1E0D0E08D91D5
:1011F000E82FE295EF70F0E061A18F709E0101C0D1
:10120000220F8A95EAF7922F9095962391A382A1B7
:10121000822B82A34A175B0751F7A3E1B1E04FE1AC
:1012200051E0C1E0D0E08D91E82FE295EF70F0E061
:1012300061A18F709E0101C0220F8A95EAF7922F5B
:101240009095962391A382A1822B82A34A175B07D4
:1012500051F7109253011092520110924B011092CB
:101260004A01109255011092540110924D011092B2
:101270004C01109257011092560110924F0110929A
:101280004E01109259011092580110925101109282
:101290005001DF91CF910C9431064F925F927F9273
:1012A0008F929F92AF92BF92CF92DF92EF92FF9276
:1012B0000F931F93CF93DF93CAE4D1E00FE111E0C6
:1012C00093E2A92E91E0B92EEE24E394F12C992417
:1012D0009394C880D98019821882D8018D918D018C
:1012E000E82FE295EF70F0E091A18F70970101C0B7
:1012F000220F8A95EAF7892F822B81A382A1822E61
:101300008094882182A3B0EABA95F1F783E1482E50
:1013100081E0582E90E080E0D2017D912D01472F91
:1013200042954F7050E0DA0190967C904881598147
:101330007F70D70102C0AA0FBB1F7A95E2F7BD01EB
:10134000672109F068C0B701082E02C0660F771F39
:101350000A94E2F7462B572B5983488301968C3029
:101360009105D1F681A1882281A282A1282B22A3F6
:1013700088819981C816D90641F090925A010E943D
:10138000E71690935C0180935B012296A016B1064C
:1013900009F09FCF80915A01882351F180915B0120
:1013A00090915C010E94F316069710F180914A011A
:1013B00090914B01909353018093520180914C0185
:1013C00090914D01909355018093540180914E016D
:1013D00090914F0190935701809356018091500155
:1013E00090915101909359018093580110925A01A4
:1013F0000E941F0681E0DF91CF911F910F91FF9016
:10140000EF90DF90CF90BF90AF909F908F907F90A4
:101410005F904F90089570E060E09CCFE82FF0E07F
:10142000EE0FFF1FEE5AFE4F8081918108950895BF
:1014300090936201809361010895E0916101F091C0
:101440006201309721F00190F081E02D099480E055
:101450000895E0916101F0916201309721F00280DE
:10146000F381E02D09940895E0916101F09162010A
:10147000309721F00480F581E02D099408952091A2
:101480005F01309160012817390771F09093600176
:1014900080935F01E0916101F0916201309721F04A
:1014A0000680F781E02D0994089520915D01309127
:1014B0005E012817390771F090935E0180935D01FA
:1014C000E0916101F0916201309721F00084F18593
:1014D000E02D0994089508950C946B0A0E94DE167D
:1014E0000E94E9080E94AF170C94E11A5F926F9274
:1014F0007F928F929F92AF92BF92CF92DF92EF92A4
:10150000FF920F931F93CF93DF93CDB7DEB72A9748
:101510000FB6F894DEBF0FBECDBF0E944D0994E612
:10152000A92E91E0B92E10E000E088248394912C3C
:10153000502E802F0E940E0A7C01F501C190D1909F
:101540005F01C816D90609F45EC08091F00181FDE3
:101550000E94170A90E080E0CE24DF243401082E98
:1015600002C0660C771C0A94E2F796012621372107
:10157000232B09F443C08E835F82E620F72081E0AD
:10158000EF2809F480E088870E94E7168160782FB1
:101590009A8789874E815F8168858A850E94300B92
:1015A000000F111FF801EC59FE4F808191816826D0
:1015B0007926718260820E94331A0E941D0A9091DE
:1015C00063018917B9F10E941D0A809363012A966D
:1015D0000FB6F894DEBF0FBECDBFDF91CF911F9144
:1015E0000F91FF90EF90DF90CF90BF90AF909F90C2
:1015F0008F907F906F905F900C94630601968C3073
:10160000910509F0ABCF0F5F1F4F0430110509F0B2
:101610008FCF8FEF89838A831B820E94E7168160B8
:10162000782F9D838C8349815A816B818D810E94A3
:10163000300BC1CF2A960FB6F894DEBF0FBECDBFD8
:10164000DF91CF911F910F91FF90EF90DF90CF909E
:10165000BF90AF909F908F907F906F905F90089514
:10166000CF93DF93CDB7DEB72B970FB6F894DEBFDD
:101670000FBECDBF4F83588769877A878B871E82BD
:101680001D8285E0FE013796DE01119601900D92D4
:101690008A95E1F749815A816B817C818D819E8198
:1016A0002B960FB6F894DEBF0FBECDBFDF91CF9162
:1016B0000C94CD11882309F4D8C0823871F40E94AB
:1016C0001D0A81FDD2C089E30E9422150E94EA15FD
:1016D00089E30E945F150C94EA15833859F40E943F
:1016E0001D0A80FDC2C083E50E9422150E94EA15F2
:1016F00083E5EFCF843859F40E941D0A82FDB5C0FE
:1017000087E40E9422150E94EA1587E4E2CF9CEF4D
:10171000980F913A18F40E942215DDCF90E2980FAD
:10172000983050F4877091E001C0990F8A95EAF7DC
:10173000892F0E94A115CFCF9BE5980F933070F4AD
:10174000853A31F0863A39F083E890E00C943F0A0C
:1017500081E890E0FBCF82E890E0F8CF98E5980F21
:10176000953108F082C0883A09F440C0893A09F4FA
:1017700040C08A3A09F440C08B3A09F440C08C3A20
:1017800009F440C08B3B09F440C08C3B09F440C0D5
:101790008D3A09F440C0803B09F440C08E3A09F408
:1017A00040C08F3A09F440C0813B09F440C0823BFD
:1017B00009F440C0833B09F440C0843B09F440C0B5
:1017C000853B09F440C0863B09F440C0873B09F4DF
:1017D00040C0883B09F440C0893B09F440C08A3BC3
:1017E00009F440C090E080E00C94550A82EE90E04D
:1017F000FBCF89EE90E0F8CF8AEE90E0F5CF85EB55
:1018000090E0F2CF86EB90E0EFCF83EB90E0ECCF6F
:1018100084EB90E0E9CF87EB90E0E6CF8CEC90E0B2
:10182000E3CF8DEC90E0E0CF83E891E0DDCF8AE874
:1018300091E0DACF82E991E0D7CF84E991E0D4CF8B
:1018400081E292E0D1CF83E292E0CECF84E292E0D7
:10185000CBCF85E292E0C8CF86E292E0C5CF87E2A7
:1018600092E0C2CF8AE292E0BFCF0895882309F4C4
:101870004BC0823871F40E941D0A81FF45C089E384
:101880000E9422150E94EA1589E30E945F150C94BC
:10189000EA15833859F40E941D0A80FF35C083E59C
:1018A0000E9422150E94EA1583E5EFCF843859F48F
:1018B0000E941D0A82FF28C087E40E9422150E9410
:1018C000EA1587E4E2CF9CEF980F913AF0F290E2AC
:1018D000980F983050F4877091E001C0990F8A9565
:1018E000EAF7892F0E94A715D2CF9BE5980F933076
:1018F00020F490E080E00C943F0A885A853120F46F
:1019000090E080E00C94550A0895882321F00E940D
:10191000A1150C94EA150895882321F00E94A715BB
:101920000C94EA1508958F929F92AF92BF92DF9226
:10193000EF92FF920F931F93CF93DF937C01D62FEB
:10194000C72FFC01058102950F70128111110E94B1
:10195000C0150E941B15D82E882371F0112321F188
:1019600080E28D0F883000F182E00E9405150E9410
:101970001B1591E0D82ED926EC2FE295EF70F0E000
:10198000EC53F34F0C94A223D60CD60C260D260D47
:10199000680D840D030D030D8F0D030D270E270E0B
:1019A0009A0EA30E030DC30ED12CE6CF0C2F0F7091
:1019B000C07F11F00295007F1123A9F0002359F098
:1019C00080E28D0F883010F0D11109C0802F0E9465
:1019D000A1150E94EA158D2F0E945A0B14C0802F6A
:1019E0000E94B215F6CF8D2F0E94360C002359F0BD
:1019F00080E28D0F883010F0D11124C0802F0E941A
:101A0000A7150E94EA15DD2009F4C4C10E94F8144C
:101A100080FDC0C1F70112820E94F2140E946C1373
:101A2000C7010E94D60E0E94F214DF91CF911F9140
:101A30000F91FF90EF90DF90BF90AF909F908F90AD
:101A40000C948D13802F0E94B815DBCFFC2FFF70F4
:101A5000BF2EC07FC03219F0B29480EFB822DD23D0
:101A600069F0D13029F1112369F1002359F0F70110
:101A7000858180FFB0CF8F70858304C0112361F012
:101A8000011104C08B2D0E94850CBDCF8B2D013020
:101A9000D1F70E94D415B7CF011106C00E94D71507
:101AA0008B2D0E948C0CAFCF013009F4ACCFF6CF58
:101AB000112321F0063008F0A6CFE4CF053008F05E
:101AC000A2CFEECF002361F38D2F0E94360C9BCF67
:101AD0008C2F86958695837069F0813009F093CFBD
:101AE0008D2F9C2F9370111102C090E080E00E9416
:101AF000550A89CF8D2F9C2F9370111102C090E051
:101B000080E00E943F0A7FCF8D2F112329F00E9491
:101B10003C190E94281A77CF0E94A419FACF8C2F63
:101B2000837009F047C011116ECF2D2F2295269595
:101B30002770220F220F6D2F6F70862E912CB12CE3
:101B4000A12C022E04C0880C991CAA1CBB1C0A9450
:101B5000D2F760E070E0CB01D4FF0FC06FE070E01F
:101B600080E090E004C0660F771F881F991F2A95B8
:101B7000D2F76095709580959095C695C695C3707F
:101B8000C23051F080F4682979298A299B29C13013
:101B900071F00E94151337CF682979298A299B296A
:101BA0000E94311330CF0E941513C501B4010E9469
:101BB000F91229CF8695112311F08C2F817088237B
:101BC00009F421CF2D2F229526952770220F220F61
:101BD0006D2F6F70862E912CB12CA12C022E04C07B
:101BE000880C991CAA1CBB1C0A94D2F760E070E018
:101BF000CB01D4FF0FC06FE070E080E090E004C044
:101C0000660F771F881F991F2A95D2F760957095E8
:101C100080959095C695C695C370C23051F080F4FA
:101C2000682979298A299B29C13071F00E94EF1314
:101C3000EACE682979298A299B290E940B14E3CED0
:101C40000E94EF13C501B4010E94D313DCCEE0E281
:101C5000ED0FE53108F062C0F0E0EF5CF14F0C945D
:101C6000A223460E460E460E460E460E460E460E63
:101C7000460E460E460E460E460E460E460E460EC4
:101C8000460E530E610E680E6F0E790EDF708C2FAC
:101C90008F71112321F00E946C138D2FF4CE0E94BE
:101CA0008D138D2FFECE112341F0053008F0ABCE01
:101CB0008C2F8F710E94B213A6CE063008F0A3CEEF
:101CC000F7CF8C2F8F71112339F00E946C139BCEAC
:101CD0008C2F8F711123C9F30E948D1394CE112381
:101CE00029F08C2F8F710E9457138DCE0E944D13B7
:101CF0008ACE112349F0CF718C2F0E946C1363E0C0
:101D00008C2F0E94FC147FCE81E00E9405150230CA
:101D100008F479CE82E00E94051575CE112329F0D2
:101D2000011159CE8C2F8F71D0CF0111CDCE8C2FB8
:101D30008F71D2CF4C2F4F706D2FC7010E94970427
:101D40000E94761260CE11115ECECF70C230A9F023
:101D500040F4CC2379F0C13009F055CE0E940A1B23
:101D600052CEC33069F0C43009F04DCE8D2F0E94A1
:101D7000591B49CE0E94F21A46CE0E94231B43CE25
:101D80000E94361B40CE4C2F4F706D2FC7010E9412
:101D9000650639CEDF91CF911F910F91FF90EF90A3
:101DA000DF90BF90AF909F908F9008950F931F93F7
:101DB000CF93DF93EC01988189812B813C81232B88
:101DC00039F08F3F19F481E09F3F19F080E001C0A6
:101DD00081E080FD17C0CE010E94E104882391F0CC
:101DE000688179818A810E94CE148C010E94271417
:101DF0000E94EE12B801CE01DF91CF911F910F9199
:101E00000C94930CDF91CF911F910F9108950E9434
:101E1000C0150E94D1150E9493150E94EA150E94D8
:101E2000D51A0E94281A90E080E00E943F0A90E0B4
:101E300080E00C94550A0E94AF150C94070F0E9485
:101E4000C414E92FE295EF70E250EE30E0F4F0E0D8
:101E5000E45DF04F0C94A2233A0F3A0F430F430F67
:101E6000450F430F430F430F3A0F3A0F4A0F430FEB
:101E7000430F4A0F803F19F020F4803E20F481E0A8
:101E80000895843FE1F380E00895803EC0F3813FF0
:101E9000D1F7F5CF93FB882780F90895CF93DF938F
:101EA00000D000D01F92CDB7DEB70F900F900F90EB
:101EB0000F900F90DF91CF910895CF93DF9300D0D3
:101EC00000D000D0CDB7DEB726960FB6F894DEBFAF
:101ED0000FBECDBFDF91CF9108951F93CF93DF93B6
:101EE000C0916D0116E080916E018C1304C0DF91EA
:101EF000CF911F910895D0E01C9FF0011D9FF00D20
:101F00001124E159FE4F40815181628173818481A6
:101F100095810E945D0F2196C770E5CF40919F018A
:101F20005091A0016091A1017091A2018091A30143
:101F30009091A4010C945D0F1F93CF93DF93809138
:101F4000A401807FD1F48091A1018823B1F0809118
:101F50006D01D0916E01B0919F01C091A00140919F
:101F6000A2015091A301A1E0BF3F09F0A0E0BA0196
:101F70006095709516E0D81304C0DF91CF911F9142
:101F8000089521E04115510521F02A2FCF3F09F096
:101F900020E090E020FD38C0189FF001199FF00D5F
:101FA0001124E159FE4F21812C132EC020812B13C7
:101FB0002BC02281211128C02381348124173507A9
:101FC00000F1241B350B283C3105F0F42091A401CD
:101FD0002F7020612093A40126E0289FF001299F03
:101FE000F00D1124EC58FE4F80818F70806180834A
:101FF0008FE991E00E94D60EDF91CF911F910C9452
:102000006D0F260F371FDFCF01968770B4CFAF92C9
:10201000BF92CF92DF92EF92FF920F931F93CF93D5
:10202000DF93CDB7DEB761970FB6F894DEBF0FBE72
:10203000CDBF8C0185E0F801DE011D9601900D9267
:102040008A95E1F7D8014C9111965C9111971296FF
:10205000EC9030919F016091A0018091A20190913C
:10206000A30121E0009731F06F3F19F421E03F3FD9
:1020700009F020E0B22FB170BB2E20FD80C1F80125
:10208000C380D480A090A101AA2009F427C1C8165A
:10209000D906D0F1D601A81BB90BCD01FF24F394CA
:1020A000883C910508F0F12C8091A401982F907F35
:1020B000FF2009F4CAC0911187C0FE2C651329C006
:1020C000341327C0E11025C08F7080618093A40174
:1020D0000E948E0F8FE991E00E94D60E8091A4019C
:1020E000F80185838F2D61960FB6F894DEBF0FBE81
:1020F000CDBFDF91CF911F910F91FF90EF90DF90B7
:10210000CF90BF90AF900895809590958C0D9D1DB8
:10211000C5CF81E0CD2831F05F3F19F481E04F3F1A
:1021200009F080E080FD24C081E08E25F82FF17059
:10213000DF2E80FF3FC080916D0120916E0136E05F
:10214000821318C04D875E878D859E850E94C414BA
:10215000292F22952F70223008F1243030F59F70FE
:1021600009F1D80115969C91907FE1F4FB2CBACF30
:1021700080E0DCCF90E0389FF001399FF00D112412
:10218000E159FE4F6181561306C06081461303C0BA
:1021900062816E110FC001968770D2CF9F7011F0CF
:1021A000882321F3805E883008F3C8010E94D60E90
:1021B000BD2CDCCFEE2009F495CF8091A401816085
:1021C0008093A401F12C8ECF651312C0341310C07C
:1021D000E1100EC0F8018583C8010E94D60E86E08A
:1021E000F801AFE9B1E001900D928A95E1F741C0A5
:1021F0004D875E878D859E850E941F0F882309F479
:10220000C8C0EE2009F4C5C08091A401803270F0EE
:1022100020919F013091A00138872F831986DB869A
:10222000CA868C87CE0107960E94D60E86E0F801FA
:10223000AFE9B1E001900D928A95E1F70E949C0F01
:102240000E948E0FFF24F3944DCF911115C07C2D69
:10225000D98AC88A6E2D89890E944E0F8FE991E034
:102260000E94D60E86E0EFE9F1E0DF011D928A952B
:10227000E9F70E948E0F36CF651312C0341310C0D9
:10228000E1100EC0F8018583C8010E94D60EEFE967
:10229000F1E086E0DF011D928A95E9F7FA2C22CF62
:1022A0004D875E878D859E850E941F0F882309F4C8
:1022B00070C0EE2009F46DC08091A401803208F452
:1022C000B5CF20919F013091A0013A8329831B82D1
:1022D000DD82CC828E83CE010196A6CFC816D906A8
:1022E00038F1F601E81BF90BCF01F12C883C910580
:1022F00008F03DC0FE2CEE2009F44BC0651326C04B
:10230000341324C08091A40180FD17C0982F907FC2
:10231000A1F0D80115968C931597903F09F45CCFE6
:10232000982F907F905F8F70892B15968C9354CF48
:10233000809590958C0D9D1DD8CF86E0F801AFE972
:10234000B1E001900D928A95E1F7CCCE4D875E8782
:102350008D859E850E941F0F811168CF8091A401F9
:1023600081608093A401C8010E94D60EBBCE7C2D53
:10237000D98AC88A6E2D89890E944E0F73CFEE20AC
:1023800041F04D875E878D859E850E941F0F8111CC
:102390004DCFC8010E94D60E55CF1F93CF93DF9328
:1023A000CDB7DEB72C970FB6F894DEBF0FBECDBF0A
:1023B0004F83588769877A878B879C87CE010796DA
:1023C0000E940710882309F442C09F8188852A85CE
:1023D0003B85232B39F08F3F19F481E09F3F19F0A3
:1023E00080E001C081E080FD08C04F81588569858B
:1023F0007A858B859C850E945D0F16E080916D012A
:1024000090916E01891709F467C0819FC001112462
:1024100081599E4F0E940710882309F45DC0E09106
:102420006D011E9FF0011124E159FE4F4081518141
:1024300062817381848195810E945D0F80916D011D
:1024400090E001968770992780936D01D7CF86E041
:10245000FE013796DE01119601900D928A95E1F703
:102460009F8188852A853B85232B39F08F3F19F47E
:1024700081E09F3F19F080E001C081E080FDBDCF89
:1024800020916E0130E0C901019687709927409133
:102490006D014817190699F096E0929FD001939F1D
:1024A000B00D1124A159BE4FFE01319601900D923D
:1024B0009A95E1F780936E010E946D0F9ECF0E9466
:1024C0001B0F10926E0110926D0186E0EFE9F1E0B2
:1024D000DF011D928A95E9F72C960FB6F894DEBFBE
:1024E0000FBECDBFDF91CF911F910895EF92FF9264
:1024F0000F931F93CF93DF938C01892B81F0F12CE5
:10250000EE24E394E8012196F8018491843770F475
:10251000843008F05FC08130B1F08230A1F1DF91EA
:10252000CF911F910F91FF90EF900895853709F497
:102530004CC008F43DC09CE7980F903780F78F7728
:102540000E94360C49C00E5F1F4FFE01849190E23D
:10255000980F983060F48770FE2D01C0FF0F8A95A8
:10256000EAF78F2F0E94C3150E94EA1502C00E944D
:102570005A0B8F2D815030F2EFE9FFE03197F1F7E0
:1025800000C00000F7CF0E5F1F4FFE01849190E264
:10259000980F983050F48770FE2D01C0FF0F8A9578
:1025A000EAF78F2F0E94C915DFCF0E94360CE1CFCA
:1025B0000E5F1F4FFE01C491C150D8F28FE99FE01A
:1025C0000197F1F700C00000F7CF0E5F1F4FFE012B
:1025D000F490CFCF0E945A0B8E01CBCF0895609319
:1025E000C7017093C8018093C9019093CA010C94EC
:1025F000070F0F931F930091C7011091C8012091FD
:10260000C9013091CA01DC01CB01802B912BA22B97
:10261000B32B8093C7019093C801A093C901B093D5
:10262000CA011F910F910C94070F0F931F930091F4
:10263000C7011091C8012091C9013091CA01DC0184
:10264000CB0180239123A223B3238093C7019093CE
:10265000C801A093C901B093CA011F910F910C94B6
:10266000070F0F931F930091C7011091C80120918C
:10267000C9013091CA01DC01CB0180279127A22733
:10268000B3278093C7019093C801A093C901B09369
:10269000CA011F910F910C94070F1092C301109261
:1026A000C4011092C5011092C6010C94070F41E0BD
:1026B00050E060E070E004C0440F551F661F771FB4
:1026C0008A95D2F74093C3015093C4016093C5012A
:1026D0007093C6010C94070F41E050E060E070E099
:1026E00004C0440F551F661F771F8A95D2F780914B
:1026F000C3019091C401A091C501B091C601842B82
:10270000952BA62BB72B8093C3019093C401A09364
:10271000C501B093C6010C94070F41E050E060E0A2
:1027200070E004C0440F551F661F771F8A95D2F7CB
:1027300040955095609570958091C3019091C4012A
:10274000A091C501B091C60184239523A623B72388
:102750008093C3019093C401A093C501B093C601B7
:102760000C94070F41E050E060E070E004C0440FBB
:10277000551F661F771F8A95D2F78091C3019091EC
:10278000C401A091C501B091C60184279527A62751
:10279000B7278093C3019093C401A093C501B09360
:1027A000C6010C94070F0F931F930091C301109162
:1027B000C4012091C5013091C601DC01CB01802B01
:1027C000912BA22BB32B8093C3019093C401A093B0
:1027D000C501B093C6011F910F910C94070F0F9381
:1027E0001F930091C3011091C4012091C501309144
:1027F000C601DC01CB0180239123A223B323809364
:10280000C3019093C401A093C501B093C6011F9169
:102810000F910C94070F0F931F930091C301109118
:10282000C4012091C5013091C601DC01CB01802794
:102830009127A227B3278093C3019093C401A0934B
:10284000C501B093C6011F910F910C94070F089515
:102850002CE0929F800D1124982F977071E001C099
:10286000770F9A95EAF786958695869525E0829F5B
:10287000C001112450E040E0A62FB0E0FC01E40FBD
:10288000F51FEB55FE4F60819D01042E02C0369569
:1028900027950A94E2F721702195262727232627DA
:1028A00020834F5F5F4F4530510541F708952CE07D
:1028B000929F800D1124982F977086958695869506
:1028C00025E0829FA001112470E060E080E0FA0121
:1028D000E60FF71FEB55FE4F208130E0092E02C0B6
:1028E000369527950A94E2F721703327062E01C00A
:1028F000220F0A94EAF7822B6F5F7F4F65307105D4
:1029000031F70895BF92CF92DF92EF92FF920F932B
:102910001F93CF93DF938C01C090C301D090C4016B
:10292000E090C501F090C6018091C7019091C80167
:10293000A091C901B091CA01C82AD92AEA2AFB2A62
:10294000CFE1D0E0BC2ED701C6010C2E04C0B69555
:10295000A795979587950A94D2F780FD0EC0219789
:1029600088F7B12C8B2DDF91CF911F910F91FF90A4
:10297000EF90DF90CF90BF900895B8018C2F0E9408
:102980008206019761F3EECFCF93DF93EC010E94B3
:102990008214BE01DF91CF910C9482061F93CF93D6
:1029A000DF93EB0190916C01992331F0CB01DF9122
:1029B000CF911F910C94C414882379F0CB010E940D
:1029C0008214182F682FCE010E942814BE01812F77
:1029D000DF91CF911F910C948206CB010E94571476
:1029E000182FF4CF8091CB01859585958595089515
:1029F0008091CB018770089598E0899F9001112400
:102A0000622B6093CB010C946C139091CB01809559
:102A100089238093CB01282F277061F4282F082E5B
:102A2000000C330B9217130629F085958595859533
:102A30000C948D1308959091CB01977081E009F467
:102A400080E00895909112019923E1F09091210284
:102A500097FF18C0E82FE695E695E695EF3139F136
:102A60002091000130910101E20FF32FF11D8770D9
:102A700021E030E001C0220F8A95EAF78181822BA4
:102A8000818308952091000130910101F90132966E
:102A90009FEF40E05191851751F09F3F19F451117C
:102AA00001C0942F4F5F4E31A9F79F3F09F408955D
:102AB000290F311D97FD3A95F90182830895909170
:102AC00012019923F1F09091210297FF1AC0E82F8B
:102AD000E695E695E695EF3129F1209100013091D8
:102AE0000101E20FF32FF11D282F277081E090E004
:102AF00001C0880F2A95EAF7809591818923818307
:102B000008952091000130910101F9013296205E73
:102B10003F4F9191891303C0DF0111971C92E21777
:102B2000F307B9F7089581E090E0E0910001F0919A
:102B30000101E80FF91F1082019680329105A9F773
:102B400008959091EF01892B8093EF010895982FBC
:102B500090958091EF0189238093EF010895109261
:102B6000EF0108959091EE01892B8093EE01089575
:102B7000982F90958091EE0189238093EE0108951E
:102B80001092EE0108959091ED01892B8093ED0153
:102B90000895982F90958091ED0189238093ED0100
:102BA00008951092ED0108958093CC01089510923C
:102BB000CC0108952091000130910101F901319675
:102BC000205E3F4F80E0919191118F5FE217F307F4
:102BD000D1F70895E0910001F09101018091EF019A
:102BE0008083E0910001F091010180819091EE01DC
:102BF000892B8083E0910001F09101018081909107
:102C0000ED01892B80839091CC01992361F0E091B3
:102C10000001F09101018081892B80830E94DA15E7
:102C200081111092CC0180910001909101010C94CE
:102C3000290A6DEE7EEF90E080E00E94DC2360E0E8
:102C400082E090E00E94CA2360E083E090E00E946E
:102C5000CA2360E084E090E00E94CA2360E085E03F
:102C600090E00E94CA2360E086E090E00C94CA23C2
:102C700090E080E00E94C42321E08D3E9E4F09F049
:102C800020E0822F089582E090E00C94BC23682F0E
:102C900082E090E00C94CA2383E090E00C94BC2383
:102CA000682F83E090E00C94CA2384E090E00C94B9
:102CB000BC23682F84E090E00C94CA2386E090E067
:102CC0000C94BC23682F86E090E00C94CA2380917A
:102CD0002802843051F11092F10188E190E020E463
:102CE0000FB6F894A895809360000FBE2093600003
:102CF00080E00E94350680E00E94630683B7817FF2
:102D0000846083BF83B7816083BF7894889583B7DD
:102D10008E7F83BF0FB6F894A8958091600088617C
:102D200080936000109260000FBE0895089508958A
:102D3000CF930E9496160E944D090E949716C0E0FC
:102D40008C2F0E940E0A892B31F4CF5FC430C1F75B
:102D500080E0CF91089581E0FCCF0E941B0F0E947C
:102D6000E11A0E941D0A0C9463061F920F920FB67F
:102D70000F9211248F939F93AF93BF938091F10192
:102D8000811113C080911D0290911E02A0911F021B
:102D9000B09120024196A11DB11D80931D02909318
:102DA0001E02A0931F02B0932002BF91AF919F918A
:102DB0008F910F900FBE0F901F90189582E084BDE9
:102DC00093E095BD9AEF97BD80936E0008952FB75D
:102DD000F89480911D0290911E02A0911F02B09163
:102DE00020022FBF0895CF92DF92EF92FF920F93B0
:102DF0001F932FB7F89440911D0250911E026091CD
:102E00001F02709120022FBF6A017B01EE24FF2474
:102E10008C0130E020E0C016D106E206F30650F047
:102E2000481B590BCA011F910F91FF90EF90DF9043
:102E3000CF90089541505109F3CF1F920F920FB6D2
:102E40000F9211248F939F93AF93BF9380911D0294
:102E500090911E02A0911F02B09120020196A11D27
:102E6000B11D80931D0290931E02A0931F02B09388
:102E70002002BF91AF919F918F910F900FBE0F9045
:102E80001F9018950E94621FF8942FEF87EA91E631
:102E9000215080409040E1F700C0000087E090EBB7
:102EA000DC018093310290933202A0933302B093FD
:102EB000340288E19CE00FB6F894A89580936000F6
:102EC0000FBE90936000FFCFAF92BF92CF92DF9280
:102ED000EF92FF920F931F93CF93C0E0CC24C39443
:102EE000D12CE82EF12C8C2F0E940E0A5C0110E0F0
:102EF00000E0C601002E02C0880F991F0A94E2F775
:102F00008A219B21892B99F40F5F1F4F0C301105EB
:102F100081F7CF5FC43039F780E0CF911F910F91D7
:102F2000FF90EF90DF90CF90BF90AF900895602F0B
:102F30007C2F80E00E946606E816F90629F781E0FA
:102F4000ECCFCF93C82F8CE20E946417882321F026
:102F50008C2FCF910C94641780E0CF910895CF937C
:102F60000E943816811102C00E941916C5E6C15090
:102F700009F0D1C089E20E94A1178111F8C08AE24C
:102F80000E94A11781110E94191685E00E94A117C5
:102F900081110E9442170E9443168093F00187E03E
:102FA0000E94A117882371F08BE10E94A11788234A
:102FB00009F4BAC09091F001892F8D7F91FF826052
:102FC0008093F0018091F0010E9447160E945516EF
:102FD00090E0909322028093210280EE0E94A1173C
:102FE000882341F090912102892F8E7F90FF81608C
:102FF0008093210289E30E94A117882341F09091D8
:103000002102892F8D7F91FF82608093210282EEC1
:103010000E94A117882341F090912102892F8B7F74
:1030200092FF84608093210286EE0E94A11788237C
:1030300041F090912102892F877F93FF88608093D0
:10304000210283EE0E94A117882341F09091210272
:10305000892F8F7E94FF80618093210285E30E94F7
:10306000A117882341F090912102892F8F7D95FF30
:1030700080628093210281E30E94A117882341F09E
:1030800090912102892F8F7B96FF8064809321028B
:1030900081E10E94A117882341F090912102892F9C
:1030A00097FB87F9805880932102809121020E942A
:1030B000591687E20E94A117C82F8EE10E94A1171E
:1030C0008111C2608FE10E94A1178111C46080E26A
:1030D0000E94A1178111C86081E20E94A11781118D
:1030E000C06182E20E94A1178111C06283E20E9446
:1030F000A1178111C06484E20E94A117882389F17D
:10310000C0688C2F0E9450166C2F70E090E080E019
:10311000CF910C94EF120E944D098FE39CE9019727
:10312000F1F700C0000023CF8EE00E94A117882392
:1031300039F09091F001892F8B7F92FF846040CF0E
:1031400080E10E94A1179091F001882329F0892F36
:10315000877F93FF886034CF892F8E7F90FF8160B7
:103160002FCFC111CECF0E944C16682FCECFCF915A
:1031700008958091F40180FF12C06091050185E0FF
:10318000689FB001112475956795759567956038AE
:103190007105A8F561157105A1F1862F089581FFCC
:1031A00009C06091050185E0689FB0011124759503
:1031B0006795EDCF82FF07C06091050185E0689FAC
:1031C000B0011124E4CF2091F5012223A9F09091C0
:1031D00004016091050185E0689FB0011124291761
:1031E000B0F6269FA001279F500D1124692F70E093
:1031F000CA010E948E23CBCF65E070E0CECF8FE76F
:10320000089581E008958091F40180FF0CC06091E1
:10321000030170E075956795759567956115710562
:1032200049F1862F089581FF06C06091030170E087
:1032300075956795F3CF6091030182FD0BC0909166
:10324000F5019923A1F06091020180910301961785
:1032500038F0682F70E06038710500F38FE708954B
:10326000899FC001112470E00E948E23F4CF61E099
:1032700070E0D7CF81E00895803F31F40E94B91803
:1032800081958093F8010895813F19F40E94B9183F
:10329000F8CF823F31F40E94B91881958093F701ED
:1032A0000895833F19F40E94B918F8CF893F29F493
:1032B0000E9403198093F90108958A3F21F40E9426
:1032C00003198195F7CF8B3F31F40E940319819543
:1032D0008093FA0108958C3F19F40E940319F8CFE6
:1032E000843F31F48091F60181608093F601089566
:1032F000853F21F48091F6018260F7CF863F21F46B
:103300008091F6018460F1CF873F21F48091F6012E
:103310008860EBCF883F21F48091F6018061E5CF92
:103320008D3F31F48091F40181608093F401089520
:103330008E3F21F48091F4018260F7CF8F3FB9F77F
:103340008091F4018460F1CF803FC1F48091F80155
:1033500087FD1092F8018091F70181110EC08091D4
:10336000F80181110AC08091F901811106C0809194
:10337000FA01811102C01092F5010895813F29F4EC
:103380008091F80118162CF3E6CF9091F701823F57
:1033900029F497FFE0CF1092F701DDCF833F19F4B6
:1033A0001916CCF3D8CF893F39F48091F90118165A
:1033B00094F61092F901CFCF8A3F29F48091F90158
:1033C00087FFC9CFF6CF8B3F39F48091FA0187FF91
:1033D000C2CF1092FA01BFCF8C3F29F48091FA013D
:1033E0001816BCF3B8CF843F31F48091F6018E7F7C
:1033F0008093F601B0CF853F21F48091F6018D7F57
:10340000F7CF863F21F48091F6018B7FF1CF873F84
:1034100021F48091F601877FEBCF883F21F48091E2
:10342000F6018F7EE5CF8D3F31F48091F4018E7FE0
:103430008093F40190CF8E3F21F48091F4018D7F31
:10344000F7CF8F3F09F087CF8091F4018B7FF0CFCA
:1034500086EF91E00E94340A0E94E7169093F301F0
:103460008093F20108951F93CF93DF938091F2012F
:103470009091F3010E94F316AC019091F501209117
:10348000060130E0911106C0209107018AE0289FD3
:10349000900111244217530780F08091F701C091E9
:1034A000F8011091F901D091FA0181110AC0C111FE
:1034B00078C0111176C0D11174C0DF91CF911F91E6
:1034C00008959F3F19F09F5F9093F501181624F41B
:1034D0000E94B9188093F7018091F70187FF05C01A
:1034E0000E94B91881958093F7011C1624F40E945C
:1034F000B9188093F8018091F80187FF05C00E94F8
:10350000B91881958093F8016091F701662331F134
:10351000C091F801CC2311F1062E000C770B880B1B
:10352000990B0E94952223E333E343E35FE30E9478
:10353000F9220E945D226093F7016C2FCC0F770B6C
:10354000880B990B0E94952223E333E343E35FE367
:103550000E94F9220E945D226093F801111624F462
:103560000E9403198093F9018091F90187FF05C03A
:103570000E94031981958093F9011D1624F40E947D
:1035800003198093FA018091FA0187FF05C00E9418
:10359000031981958093FA01DF91CF911F910C94CB
:1035A000281A9F3F09F08FCFA0CF85E0E6EFF1E02A
:1035B000DF011D928A95E9F71092F5011092F4014E
:1035C00008950E943816811102C00E9419160E94A7
:1035D0005E168093230280FF03C086950C94350607
:1035E00080E0FCCF80912302982F9695933030F4A1
:1035F0009F5F990F8170892B809323028091230212
:103600008160809323020E94621680912302869536
:103610000C94350680912302982F9E7F79F082507A
:10362000809323028E7F91E009F490E08091230241
:1036300090FB80F9809323020E94621680912302FE
:1036400086950C94350690912302892F8E7F90FFEA
:103650008160809323020E9462168091230280FF82
:1036600003C086950C94350680E0FCCF9091230230
:10367000892F86958F5F8F7791708430B8F4880F8B
:10368000892B80932302809123028E7F91E009F49D
:1036900090E08091230290FB80F9809323020E94A6
:1036A00062168091230286950C943506909323022E
:1036B000EACF90912302292F26958227880F9170B7
:1036C000982B909323029E7F21E009F420E08091C3
:1036D000230220FB80F9809323020E9462168091CE
:1036E000230286950C94350680911B020895CF9392
:1036F000DF9300D01F92CDB7DEB79C0180912802E6
:10370000843019F593E099833B832A839093E900F1
:103710008FEF9091E800815095FD06C095ED9A9548
:10372000F1F700008111F5CF8091E80085FF0DC011
:1037300050E040E063E070E0CE0101960E94D21DAF
:103740008091E8008E778093E8000F900F900F90A3
:10375000DF91CF910895CF93DF9300D01F92CDB723
:10376000DEB720912802243031F522E029838058E9
:1037700091099B838A8383E08093E9008FEF909186
:10378000E800815095FD06C095ED9A95F1F700008F
:103790008111F5CF8091E80085FF0DC050E040E039
:1037A00063E070E0CE0101960E94D21D8091E80096
:1037B0008E778093E8000F900F900F90DF91CF915C
:1037C00008959C01809128028430F9F482E080936E
:1037D000E9009FEF8091E800915085FD06C085EDDE
:1037E0008A95F1F700009111F5CF8091E80085FFEF
:1037F0000CC050E040E065E070E0C9010E94D21DBD
:103800008091E8008E778093E8000895CF93DF934E
:10381000EC01809128028430F1F4909112019923F7
:10382000E9F09091210297FF19C08093E9008FEF92
:103830009091E800815095FD06C095E19A95F1F7C9
:1038400000008111F5CF8091E80050E040E060E297
:1038500070E085FD1AC0DF91CF91089581E08093DB
:10386000E9008FEF9091E800815095FD06C095ED3D
:103870009A95F1F700008111F5CF8091E80085FF5E
:10388000EACF50E040E068E070E0CE010E94D21D37
:103890008091E8008E778093E80080E2FE01ABEF34
:1038A000B1E001900D928A95E1F7D5CF8091270282
:1038B000811109C00E94621F0E94BF1F8091E20017
:1038C00084608093E200089510922702089508957D
:1038D00008950C94AD1642E061EC81E00E94E01E78
:1038E00042E061EC82E00E94E01E42E061EC83E095
:1038F0000E94E01E42E261EC84E00C94E01E8091A4
:103900002A02833009F455C030F4813071F18230DD
:1039100009F491C008958A3009F47DC08B3009F410
:1039200063C0893009F044C080912902813209F0D6
:103930003FC080912D0290912E02009711F00397C5
:10394000B9F58091E800877F8093E8008091E800D6
:1039500082FF2AC08091F10080931B028091E800D1
:103960008B778093E8000C94141F80912902813A90
:10397000F9F48091E800877F8093E80080912D0220
:1039800090912E02892B61F460E28BEF91E070E060
:103990000E94211E8091E8008B778093E8000895B3
:1039A00060E090E080E0F3CF809128028111CECFDB
:1039B000089580912902813AD9F780912D02909142
:1039C0002E02892BA9F78091E800877F8093E80079
:1039D0008091E80080FFFCCF809112018093F1007C
:1039E0008091E8008E77BDCF80912902813201F766
:1039F00080912D0290912E02892BD1F68091E800C2
:103A0000877F8093E8000E94141F80912B0280938F
:103A100012010C941B0F80912902813249F680918A
:103A2000E800877F8093E8000E94141F80912C0299
:103A300080931C02089580912902813A09F0B8CF41
:103A40008091E800877F8093E8008091E80080FF04
:103A5000FCCF80911C02C2CF84B7877F84BF0FB692
:103A6000F894A8958091600088618093600010921E
:103A700060000FBE80E880936100109261000E9498
:103A80006C0A0E94621F0E94BF1F8091E200846046
:103A90008093E20078940E9441220E946E0A88E09E
:103AA00091E00E94180A80912802853019F00E9446
:103AB000760AF9CF0E94671680912602882399F32F
:103AC0000E949816882379F30E94BC1DECCF292F01
:103AD00033272330310579F158F421303105F1F0E5
:103AE0002230310519F190E080E030E020E01AC08A
:103AF0002132310599F122323105A9F7643098F766
:103B000070E0FB01EE0FFF1FE95DFE4F2081318168
:103B10006D5D7E4FFB01808190E004C082E190E00A
:103B20002DE837E0FA013183208308958DE690E097
:103B300020E237E0F7CF99278130910561F028F036
:103B4000029789F6E0EFF6E002C0ECE1F7E084913D
:103B500090E09F01E7CFE4E0F7E0F9CF643008F0B0
:103B6000C2CFE62FF0E0EE0FFF1FE15DFE4F208198
:103B7000318189E090E0D6CF80E189BD82E189BDC5
:103B800009B400FEFDCF8091D8008F7D8093D800CE
:103B90008091E00082608093E0008091E00081FDF0
:103BA000FCCF0895AF92BF92CF92DF92FF920F9316
:103BB0001F93CF93DF936C01EB018A010E94331FA7
:103BC000F82E811123C00115110539F0F80180810B
:103BD0009181C81BD90BC80ED91EB12CA12C2097DE
:103BE000A9F08091E80085FD22C08091E8008E77E1
:103BF0008093E80001151105A1F0F8018081918101
:103C0000A80EB91EB182A08285E0F82E8F2DDF911B
:103C1000CF911F910F91FF90DF90CF90BF90AF9009
:103C200008950E94331F8823D1F2F82EEFCFF601BA
:103C300081916F018093F1002197FFEFAF1ABF0AC6
:103C4000CECFFC0180912F0290913002861797070A
:103C5000A0F06115710529F49091E8009E7790938A
:103C6000E80090E06115710551F4911108C0809150
:103C7000E80082FF35C080E00895BC01F2CF80915A
:103C800028028823C9F18530C9F18091E80083FDBD
:103C900031C08091E80082FDEACF8091E80080FF8A
:103CA000E1CF2091F3008091F200322F282F61158F
:103CB000710519F02830310558F091E028303105B0
:103CC00009F090E02091E8002E772093E800CACF19
:103CD00081918093F100615071092F5F3F4FE7CFD1
:103CE00080912802882341F0853041F08091E800DE
:103CF00083FFBDCF81E0089582E0089583E00895B9
:103D0000FC0180912F029091300286179707A0F056
:103D10006115710529F48091E8008E778093E800A1
:103D200090E06115710551F4911108C08091E8008F
:103D300082FF36C080E00895BC01F2CF8091280256
:103D40008823D1F18530D1F18091E80083FD32C024
:103D50008091E80082FDEACF8091E80080FFE1CF0A
:103D60002091F3008091F200322F282F6115710508
:103D700019F02830310558F091E02830310509F06C
:103D800090E08091E8008E778093E800CACF84911C
:103D90008093F1003196615071092F5F3F4FE6CF5C
:103DA00080912802882341F0853041F08091E8001D
:103DB00083FFBCCF81E0089582E0089583E00895F9
:103DC000982F973028F08F708093E90081E0089554
:103DD0009093E900242F762F50E0981731F07091DE
:103DE000EC002091ED005091F00021FD02C09F5F9A
:103DF000E8CF3091EB003E7F3093EB003091ED0047
:103E00003D7F3093ED003091EB0031603093EB005B
:103E10007093EC002093ED005093F0002091EE00A1
:103E200027FDE5CF80E008958091290287FF13C028
:103E30008091E80082FF06C08091E8008B77809334
:103E4000E80004C0809128028111F2CF089580918A
:103E500028028823D9F38091E80080FFF8CF809171
:103E6000E8008E77ECCF2091E4003091E50085E604
:103E70009091EC0090FF06C09091E80090FF06C082
:103E800080E008959091E80092FDFACF9091280289
:103E9000992391F0953091F09091EB0095FD10C031
:103EA0004091E4005091E5002417350709F3815053
:103EB0009A01F1F684E0089582E0089583E0089580
:103EC00081E008950E94D01F0E94D81FE0EEF0E02C
:103ED000808181608083E8EDF0E080818F7780834E
:103EE00019BCA7EDB0E08C918E7F8C9380818F7E82
:103EF00080831092270208950F931F93CF93DF932F
:103F00000E94D01F0E94D81FC8EDD0E088818F7713
:103F1000888388818068888388818F7D888319BCA5
:103F2000109228021092240210922602109225026A
:103F300000EE10E0F80180818B7F808388818160B2
:103F4000888342E060E080E00E94E01EE1EEF0E065
:103F500080818E7F8083E2EEF0E0808181608083CB
:103F6000808188608083F80180818E7F8083888152
:103F700080618883DF91CF911F910F910895E8EDC3
:103F8000F0E080818F7E8083E7EDF0E080818160CA
:103F9000808384E082BF81E0809327020C947C1FA1
:103FA000E8EDF0E080818E7F80831092E20008953A
:103FB0001092DA001092E10008951F920F920FB64E
:103FC0000F9211242F933F934F935F936F937F939F
:103FD0008F939F93AF93BF93EF93FF938091E100F3
:103FE00082FF0BC08091E20082FF07C08091E10058
:103FF0008B7F8093E1000E9440228091DA0080FF55
:1040000019C08091D80080FF15C08091DA008E7FA2
:104010008093DA008091D90080FF94C080E189BD4F
:1040200082E189BD09B400FEFDCF81E080932802C2
:104030000E94561C8091E10080FF19C08091E2002F
:1040400080FF15C08091E2008E7F8093E200809116
:10405000E20080618093E2008091D80080628093CA
:10406000D80019BC85E0809328020E94681C8091CA
:10407000E10084FF29C08091E20084FF25C080E137
:1040800089BD82E189BD09B400FEFDCF8091D800D1
:104090008F7D8093D8008091E1008F7E8093E10036
:1040A0008091E2008F7E8093E2008091E200816047
:1040B0008093E20080912402882309F449C084E0BF
:1040C000809328020E94691C8091E10083FF29C02F
:1040D0008091E20083FF25C08091E100877F80937B
:1040E000E10082E080932802109224028091E10096
:1040F0008E7F8093E1008091E2008E7F8093E200CA
:104100008091E20080618093E20042E060E080E024
:104110000E94E01E8091F00088608093F0000E9471
:10412000671CFF91EF91BF91AF919F918F917F910C
:104130006F915F914F913F912F910F900FBE0F9014
:104140001F90189519BC109228020E94641C72CF0F
:104150008091E30087FD02C081E0B2CF83E0B0CF61
:104160001F920F920FB60F9211242F933F934F93EC
:104170005F936F937F938F939F93AF93BF93CF93EF
:10418000EF93FF93C091E900CF708091EC00109203
:10419000E9008091F000877F8093F00078940E947E
:1041A000EC201092E9008091F00088608093F0008C
:1041B000C093E900FF91EF91CF91BF91AF919F9193
:1041C0008F917F916F915F914F913F912F910F90C0
:1041D0000FBE0F901F9018951F93CF93DF93CDB70D
:1041E000DEB7AA970FB6F894DEBF0FBECDBFE9E2E7
:1041F000F2E08091F100819322E0E133F207C9F708
:104200000E947F1C8091E80083FF42C080912902B8
:1042100090912A029A3008F03BC0E92FF0E0ED5E61
:10422000FE4D0C94A2231D2141214821412148210A
:104230009C21BE21482113222022803879F0823827
:1042400039F580912D028F708093E9008091EB0009
:1042500085FB882780F91092E90006C0809125022D
:1042600090912602911182609091E800977F90933F
:10427000E8008093F1001092F1008091E8008E77C1
:104280002DC0282F2D7F21F48823D1F0823059F1C1
:104290008091E80083FF0AC08091E800877F8093C7
:1042A000E8008091EB0080628093EB00AA960FB645
:1042B000F894DEBF0FBECDBFDF91CF911F9108955F
:1042C00080912B02813021F7933009F080E08093B8
:1042D00026021092E9008091E800877F8093E80031
:1042E0000E94141FD5CF80912B028111F2CF8091B3
:1042F0002D028F7069F28093E9002091EB0020FF7E
:10430000E8CF933031F48091EB0080628093EB0032
:10431000E0CF9091EB0090619093EB0021E030E0D2
:1043200001C0220F8A95EAF72093EA001092EA0072
:104330008091EB008860EACF8111AACF10912B0207
:104340001F778091E3008078812B8093E300809138
:10435000E800877F8093E8000E94141F8091E800A6
:1043600080FFFCCF8091E30080688093E30083E0CE
:10437000111101C082E0809328028ACF80588230D8
:1043800008F086CF80912B0290912C028C3D23E087
:104390009207A1F583E08A838AE289834FB7F89474
:1043A000DE01139620E03EE051E2E32FF0E050936F
:1043B0005700E49120FF03C0E295EF703F5FEF707C
:1043C0008E2F90E0EA30C0F0C7968D939D932F5FBB
:1043D000243159F74FBF8091E800877F8093E80030
:1043E0006AE270E0CE0101960E94211E8091E800F1
:1043F0008B778093E8004CCFC096E7CFAE014F5F3C
:104400005F4F60912D020E94671DBC01892B09F44A
:104410003FCF9091E800977F9093E80089819A813F
:104420000E94801EE3CF803809F032CF8091E800EF
:10443000877F8093E800809124028093F1001DCF54
:10444000811126CF90912B02923008F021CF8091DC
:10445000E800877F8093E800909324020E94141F55
:1044600080912402882331F084E0809328020E9406
:104470006B1C0ECF8091E30087FDF6CF81E0F5CF76
:104480000895CF9380912802882399F0C091E90084
:10449000CF708091EC0080FD0EC080E0C82B1092A0
:1044A000E9008091E80083FD0E94EC20CF70C0936A
:1044B000E900CF91089580E8F1CF0E9464226894CA
:1044C000B1110C94F32208950E94D82288F09F57CE
:1044D00098F0B92F9927B751B0F0E1F0660F771F28
:1044E000881F991F1AF0BA95C9F714C0B13091F01E
:1044F0000E94F222B1E008950C94F222672F782FE7
:104500008827B85F39F0B93FCCF3869577956795E2
:10451000B395D9F73EF490958095709561957F4F4E
:104520008F4F9F4F0895E89409C097FB3EF49095F4
:104530008095709561957F4F8F4F9F4F9923A9F07C
:10454000F92F96E9BB279395F6958795779567950B
:10455000B795F111F8CFFAF4BB0F11F460FF1BC04F
:104560006F5F7F4F8F4F9F4F16C0882311F096E9E2
:1045700011C0772321F09EE8872F762F05C0662390
:1045800071F096E8862F70E060E02AF09A95660F49
:10459000771F881FDAF7880F9695879597F9089502
:1045A00057FD9058440F551F59F05F3F71F04795E4
:1045B000880F97FB991F61F09F3F79F087950895C9
:1045C000121613061406551FF2CF4695F1DF08C0E8
:1045D000161617061806991FF1CF86957105610505
:1045E00008940895E894BB2766277727CB0197F9AD
:1045F00008950E940C230C947D230E946F2338F0B1
:104600000E94762320F0952311F00C9466230C94DD
:104610006C2311240C94F3220E94D02270F3959FF6
:10462000C1F3950F50E0551F629FF001729FBB27A9
:10463000F00DB11D639FAA27F00DB11DAA1F649F45
:104640006627B00DA11D661F829F2227B00DA11DF8
:10465000621F739FB00DA11D621F839FA00D611D7E
:10466000221F749F3327A00D611D231F849F600D9F
:10467000211D822F762F6A2F11249F5750409AF0C8
:10468000F1F088234AF0EE0FFF1FBB1F661F771F54
:10469000881F91505040A9F79E3F510580F00C941F
:1046A00066230C94F3225F3FE4F3983ED4F386959F
:1046B00077956795B795F795E7959F5FC1F7FE2BBF
:1046C000880F911D9695879597F9089597F99F679B
:1046D00080E870E060E008959FEF80EC089500248A
:1046E0000A941616170618060906089500240A9457
:1046F00012161306140605060895092E0394000CDD
:1047000011F4882352F0BB0F40F4BF2B11F460FF6B
:1047100004C06F5F7F4F8F4F9F4F089597FB072E09
:1047200016F4009407D077FD09D00E94A82307FC57
:1047300005D03EF4909581959F4F089570956195B1
:104740007F4F0895EE0FFF1F0590F491E02D09941F
:10475000AA1BBB1B51E107C0AA1FBB1FA617B707A7
:1047600010F0A61BB70B881F991F5A95A9F78095C3
:104770009095BC01CD010895F999FECF92BD81BD00
:10478000F89A992780B50895A8E1B0E042E050E09A
:104790000C94E423262FF999FECF92BD81BDF89A9F
:1047A000019700B4021639F01FBA20BD0FB6F89475
:1047B000FA9AF99A0FBE08950196272F0E94CB23EB
:1047C0000C94CA23DC01CB01FC01F999FECF06C091
:1047D000F2BDE1BDF89A319600B40D9241505040BF
:0847E000B8F70895F894FFCF2B
:1047E800CD012808140A321E741B061CE11BAB1BE2
:1047F800771B01F1F03067F4F5F6F794963497904B
:10480800953536404D36395B080E08D8079F073274
:08481800074B0764077D070050
:00000001FF
